{"help": "https://data.kcg.gov.tw/api/3/action/help_show?name=datastore_search", "success": true, "result": {"resource_id": "f5408845-0f47-49b5-b366-119e74ef95b1", "fields": [{"type": "int4", "id": "_id"}, {"type": "text", "id": "\u5730\u9ede"}, {"type": "text", "id": "\u5730\u5740"}, {"type": "numeric", "id": "lat"}, {"type": "numeric", "id": "lng"}], "records": [{"lat": "22.633889", "\u5730\u5740": "800\u9ad8\u96c4\u5e02\u65b0\u8208\u5340\u4e03\u8ce2\u4e00\u8def104\u3001106\u865f", "_id": 1, "\u5730\u9ede": "\u9ad8\u96c4\u9806\u660c\u90f5\u5c40", "lng": "120.314262"}, {"lat": "22.634608", "\u5730\u5740": "800\u9ad8\u96c4\u5e02\u65b0\u8208\u5340\u4e03\u8ce2\u4e00\u8def480\u865f", "_id": 2, "\u5730\u9ede": "\u81fa\u7063\u571f\u5730\u9280\u884c\u65b0\u8208\u5206\u884c", "lng": "120.304076"}, {"lat": "22.632174", "\u5730\u5740": "800\u9ad8\u96c4\u5e02\u65b0\u8208\u5340\u4e2d\u5c71\u4e00\u8def117\u865f", "_id": 3, "\u5730\u9ede": "\u83ef\u5357\u5546\u696d\u9280\u884c\u65b0\u8208\u5206\u884c", "lng": "120.301344"}, {"lat": "22.636466", "\u5730\u5740": "800\u9ad8\u96c4\u5e02\u65b0\u8208\u5340\u4e2d\u5c71\u4e00\u8def308\u865f", "_id": 4, "\u5730\u9ede": "\u5146\u8c50\u570b\u969b\u5546\u9280\u65b0\u8208\u5206\u884c", "lng": "120.302621"}, {"lat": "22.631444", "\u5730\u5740": "800\u9ad8\u96c4\u5e02\u65b0\u8208\u5340\u4e2d\u6b63\u4e09\u8def158\u865f", "_id": 5, "\u5730\u9ede": "\u81fa\u7063\u571f\u5730\u9280\u884c\u4e2d\u6b63\u5206\u884c", "lng": "120.304072"}, {"lat": "22.631012", "\u5730\u5740": "800\u9ad8\u96c4\u5e02\u65b0\u8208\u5340\u4e2d\u6b63\u4e09\u8def177\u3001179\u865f", "_id": 6, "\u5730\u9ede": "\u65b0\u8208\u90f5\u5c40-1", "lng": "120.30416"}, {"lat": "22.631012", "\u5730\u5740": "800\u9ad8\u96c4\u5e02\u65b0\u8208\u5340\u4e2d\u6b63\u4e09\u8def177\u3001179\u865f", "_id": 7, "\u5730\u9ede": "\u65b0\u8208\u90f5\u5c40-2", "lng": "120.30416"}, {"lat": "22.630656", "\u5730\u5740": "800\u9ad8\u96c4\u5e02\u65b0\u8208\u5340\u4e2d\u6b63\u4e09\u8def25\u865f16\u6a13", "_id": 8, "\u5730\u9ede": "\u9ad8\u96c4\u5e02\u653f\u5e9c\u4ea4\u901a\u5c40\u672c\u90e8", "lng": "120.30986"}, {"lat": "22.630354", "\u5730\u5740": "800\u9ad8\u96c4\u5e02\u65b0\u8208\u5340\u4e2d\u6b63\u4e09\u8def25\u865f18\u6a13", "_id": 9, "\u5730\u9ede": "\u8ca1\u653f\u90e8\u570b\u6709\u8ca1\u7522\u7f72\u5357\u5340\u5206\u7f7218\u6a13\u6c11\u773e\u7b49\u5019\u5340", "lng": "120.309898"}, {"lat": "22.630549", "\u5730\u5740": "800\u9ad8\u96c4\u5e02\u65b0\u8208\u5340\u4e2d\u6b63\u4e09\u8def25\u865f1\u6a13", "_id": 10, "\u5730\u9ede": "\u9ad8\u96c4\u5e02\u7a05\u6350\u7a3d\u5fb5\u8655\u65b0\u8208\u5206\u8655", "lng": "120.30952"}, {"lat": "22.62252", "\u5730\u5740": "800\u9ad8\u96c4\u5e02\u65b0\u8208\u5340\u4e2d\u6b63\u4e09\u8def25\u865f3\u6a13", "_id": 11, "\u5730\u9ede": "\u9ad8\u96c4\u5e02\u653f\u5e9c\u4ea4\u901a\u5c40\u505c\u7ba1\u4e2d\u5fc33\u6a13", "lng": "120.291235"}, {"lat": "22.631322", "\u5730\u5740": "800\u9ad8\u96c4\u5e02\u65b0\u8208\u5340\u4e2d\u6b63\u4e09\u8def34\u865f2\u6a13", "_id": 12, "\u5730\u9ede": "\u9ad8\u96c4\u5e02\u65b0\u8208\u5340\u6236\u653f\u4e8b\u52d9\u6240", "lng": "120.309949"}, {"lat": "22.631163", "\u5730\u5740": "800\u9ad8\u96c4\u5e02\u65b0\u8208\u5340\u4e2d\u6b63\u4e09\u8def34\u865f3\u6a13", "_id": 13, "\u5730\u9ede": "\u9ad8\u96c4\u5e02\u7acb\u5716\u66f8\u9928\u65b0\u8208\u5206\u9928", "lng": "120.309879"}, {"lat": "22.631072", "\u5730\u5740": "800\u9ad8\u96c4\u5e02\u65b0\u8208\u5340\u4e2d\u6b63\u4e09\u8def34\u865f6\u6a13", "_id": 14, "\u5730\u9ede": "\u9ad8\u96c4\u5e02\u653f\u5e9c\u5730\u653f\u5c40\u65b0\u8208\u5730\u653f\u4e8b\u52d9\u6240", "lng": "120.310021"}, {"lat": "22.631081", "\u5730\u5740": "800\u9ad8\u96c4\u5e02\u65b0\u8208\u5340\u4e2d\u6b63\u4e09\u8def34\u865f8\u6a13", "_id": 15, "\u5730\u9ede": "\u8ca1\u653f\u90e8\u9ad8\u96c4\u570b\u7a05\u5c40\u65b0\u8208\u7a3d\u5fb5\u6240", "lng": "120.309992"}, {"lat": "22.630879", "\u5730\u5740": "800\u9ad8\u96c4\u5e02\u65b0\u8208\u5340\u4e2d\u6b63\u4e09\u8def61\u865f", "_id": 16, "\u5730\u9ede": "\u4e0a\u6d77\u5546\u9280\u9ad8\u96c4\u5206\u884c", "lng": "120.307981"}, {"lat": "22.63089", "\u5730\u5740": "800\u9ad8\u96c4\u5e02\u65b0\u8208\u5340\u4e2d\u6b63\u56db\u8def17\u865f", "_id": 17, "\u5730\u9ede": "\u7b2c\u4e00\u5546\u696d\u9280\u884c\u65b0\u8208\u5206\u884c", "lng": "120.301051"}, {"lat": "22.630884", "\u5730\u5740": "800\u9ad8\u96c4\u5e02\u65b0\u8208\u5340\u4e2d\u6b63\u56db\u8def17\u865f3\u6a13", "_id": 18, "\u5730\u9ede": "\u7b2c\u4e00\u91d1\u8b49\u5238\u65b0\u8208\u5206\u516c\u53f8", "lng": "120.301065"}, {"lat": "22.631253", "\u5730\u5740": "800\u9ad8\u96c4\u5e02\u65b0\u8208\u5340\u4e2d\u6771\u91cc\u4e2d\u6b63\u4e09\u8def34\u865f4\u6a13", "_id": 19, "\u5730\u9ede": "\u9ad8\u96c4\u5e02\u65b0\u8208\u5340\u516c\u6240", "lng": "120.309992"}, {"lat": "22.624753", "\u5730\u5740": "800\u9ad8\u96c4\u5e02\u65b0\u8208\u5340\u4e94\u798f\u4e8c\u8def200\u865f", "_id": 20, "\u5730\u9ede": "\u5167\u653f\u90e8\u71df\u5efa\u7f72\u5357\u5340\u5de5\u7a0b\u86551\u6a13\u5927\u5ef3", "lng": "120.305095"}, {"lat": "22.624753", "\u5730\u5740": "800\u9ad8\u96c4\u5e02\u65b0\u8208\u5340\u4e94\u798f\u4e8c\u8def200\u865f", "_id": 21, "\u5730\u9ede": "\u5167\u653f\u90e8\u71df\u5efa\u7f72\u5357\u5340\u5de5\u7a0b\u86553F(\u6703\u8b70\u5ba4)", "lng": "120.305095"}, {"lat": "22.624753", "\u5730\u5740": "800\u9ad8\u96c4\u5e02\u65b0\u8208\u5340\u4e94\u798f\u4e8c\u8def200\u865f", "_id": 22, "\u5730\u9ede": "\u5167\u653f\u90e8\u71df\u5efa\u7f72\u5357\u5340\u5de5\u7a0b\u86557F(\u6703\u8b70\u5ba4)", "lng": "120.305095"}, {"lat": "22.625695", "\u5730\u5740": "800\u9ad8\u96c4\u5e02\u65b0\u8208\u5340\u4e94\u798f\u4e8c\u8def82\u865f", "_id": 23, "\u5730\u9ede": "\u5146\u8c50\u570b\u969b\u5546\u9280\u4e94\u798f\u5206\u884c", "lng": "120.308332"}, {"lat": "22.632797", "\u5730\u5740": "800\u9ad8\u96c4\u5e02\u65b0\u8208\u5340\u516d\u54081\u8def113\u865f", "_id": 24, "\u5730\u9ede": "\u5167\u653f\u90e8\u79fb\u6c11\u7f72\u9ad8\u96c4\u5e02\u5c08\u52e4\u968a", "lng": "120.304346"}, {"lat": "22.632788", "\u5730\u5740": "800\u9ad8\u96c4\u5e02\u65b0\u8208\u5340\u516d\u5408\u4e00\u8def113\u865f", "_id": 25, "\u5730\u9ede": "\u8fb2\u7ce7\u7f72\u5357\u5340\u5206\u7f72\u9ad8\u96c4\u8fa6\u4e8b\u8655", "lng": "120.304348"}, {"lat": "22.632622", "\u5730\u5740": "800\u9ad8\u96c4\u5e02\u65b0\u8208\u5340\u516d\u5408\u4e00\u8def78\u865f", "_id": 26, "\u5730\u9ede": "\u83ef\u5357\u5546\u696d\u9280\u884c\u6771\u9ad8\u96c4\u5206\u884c", "lng": "120.309343"}, {"lat": "22.627272", "\u5730\u5740": "800\u9ad8\u96c4\u5e02\u65b0\u8208\u5340\u6c11\u751f\u4e00\u8def271\u865f", "_id": 27, "\u5730\u9ede": "\u9ad8\u96c4\u5e02\u7acb\u5716\u66f8\u9928\u65b0\u8208\u6c11\u773e\u95b1\u89bd\u5ba4", "lng": "120.306843"}, {"lat": "22.63396", "\u5730\u5740": "800\u9ad8\u96c4\u5e02\u65b0\u8208\u5340\u6c11\u65cf\u4e8c\u8def133\u865f", "_id": 28, "\u5730\u9ede": "\u81fa\u7063\u9280\u884c\u65b0\u8208\u5206\u884c", "lng": "120.313257"}, {"lat": "22.634532", "\u5730\u5740": "800\u9ad8\u96c4\u5e02\u65b0\u8208\u5340\u5fe0\u5b5d\u4e00\u8def456\u865f1\u6a13", "_id": 29, "\u5730\u9ede": "\u5f70\u5316\u5546\u696d\u9280\u884c\u4e03\u8ce2\u5206\u884c", "lng": "120.306643"}, {"lat": "22.635611", "\u5730\u5740": "800\u9ad8\u96c4\u5e02\u65b0\u8208\u5340\u5fe0\u5b5d\u4e00\u8def456\u865f3\u6a13", "_id": 30, "\u5730\u9ede": "\u5f70\u5316\u5546\u696d\u9280\u884c\u8b49\u5238\u7d93\u7d00\u5546\u4e03\u8ce2\u5206\u516c\u53f8", "lng": "120.306712"}, {"lat": "22.623598", "\u5730\u5740": "800\u9ad8\u96c4\u5e02\u65b0\u8208\u5340\u6cb3\u6771\u8def\u8207\u6c11\u751f\u4e8c\u8def\u4ea4\u53c9\u53e3\u7684\u9c32\u71c81\u6a13", "_id": 31, "\u5730\u9ede": "\u9ad8\u96c4\u5e02\u653f\u5e9c\u89c0\u5149\u5c40\u611b\u6cb3\u65c5\u904a\u670d\u52d9\u4e2d\u5fc3", "lng": "120.290339"}, {"lat": "22.628292", "\u5730\u5740": "800\u9ad8\u96c4\u5e02\u65b0\u8208\u5340\u5fa9\u8208\u4e00\u8def6\u865f", "_id": 32, "\u5730\u9ede": "\u570b\u9632\u90e8\u9ad8\u96c4\u798f\u5229\u7ad9\u670d\u52d9\u53f01", "lng": "120.308091"}, {"lat": "22.633524", "\u5730\u5740": "800\u9ad8\u96c4\u5e02\u65b0\u8208\u5340\u5fa9\u8208\u4e00\u8def80\u865f", "_id": 33, "\u5730\u9ede": "\u884c\u653f\u57f7\u884c\u7f72\u9ad8\u96c4\u5206\u7f721\u6a13\u7b49\u5019\u5340", "lng": "120.308548"}, {"lat": "22.633524", "\u5730\u5740": "800\u9ad8\u96c4\u5e02\u65b0\u8208\u5340\u5fa9\u8208\u4e00\u8def80\u865f", "_id": 34, "\u5730\u9ede": "\u884c\u653f\u57f7\u884c\u7f72\u9ad8\u96c4\u5206\u7f722\u6a13\u7b49\u5019\u5340", "lng": "120.308548"}, {"lat": "22.6249558", "\u5730\u5740": "800\u9ad8\u96c4\u5e02\u65b0\u8208\u5340\u5fa9\u8208\u4e8c\u8def171\u865f", "_id": 35, "\u5730\u9ede": "\u9ad8\u96c4\u9752\u5e74\u90f5\u5c40", "lng": "120.3083535"}, {"lat": "22.622207", "\u5730\u5740": "800\u9ad8\u96c4\u5e02\u65b0\u8208\u5340\u65b0\u7530\u8def133\u865f", "_id": 36, "\u5730\u9ede": "\u9ad8\u96c4\u65b0\u7530\u90f5\u5c40", "lng": "120.303833"}, {"lat": "22.623071", "\u5730\u5740": "800\u9ad8\u96c4\u5e02\u65b0\u8208\u5340\u65b0\u7530\u8def82\u865f", "_id": 37, "\u5730\u9ede": "\u4e2d\u6cb9\u516c\u53f8\u9ad8\u96c4\u5e02\u65b0\u8208\u5340\u6797\u68ee\u4e8c\u8def\u7ad9", "lng": "120.305714"}, {"lat": "22.636013", "\u5730\u5740": "800\u9ad8\u96c4\u5e02\u65b0\u8208\u5340\u9326\u7530\u8def142\u865f1\u6a13", "_id": 38, "\u5730\u9ede": "\u570b\u5bb6\u901a\u8a0a\u50b3\u64ad\u59d4\u54e1\u6703\u5357\u5340\u76e3\u7406\u8655\u670d\u52d9\u4e2d\u5fc3", "lng": "120.310816"}, {"lat": "22.633481", "\u5730\u5740": "801\u9ad8\u96c4\u5e02\u524d\u91d1\u5340\u4e03\u8ce2\u4e8c\u8def189\u865f", "_id": 39, "\u5730\u9ede": "\u83ef\u5357\u5546\u696d\u9280\u884c\u9ad8\u96c4\u4e09\u6c11\u5206\u884c", "lng": "120.295916"}, {"lat": "22.623365", "\u5730\u5740": "801\u9ad8\u96c4\u5e02\u524d\u91d1\u5340\u4e2d\u5c71\u4e8c\u8def\u8207\u4e94\u798f\u4e09\u8def\u516c\u8eca\u7ad9", "_id": 40, "\u5730\u9ede": "\u9ad8\u5e02\u5e9c\u8cc7\u8a0a\u4e2d\u5fc3-\u57ce\u5e02\u5149\u5eca(\u516c\u8eca\u7ad9\u897f)", "lng": "120.30093"}, {"lat": "22.629803", "\u5730\u5740": "801\u9ad8\u96c4\u5e02\u524d\u91d1\u5340\u4e2d\u6b63\u56db\u8def103\u865f2\u6a13", "_id": 41, "\u5730\u9ede": "\u7d93\u6fdf\u90e8\u570b\u969b\u8cbf\u6613\u5c40\u9ad8\u96c4\u8fa6\u4e8b\u8655\u5ee0\u5546\u670d\u52d9\u5340", "lng": "120.298197"}, {"lat": "22.629695", "\u5730\u5740": "801\u9ad8\u96c4\u5e02\u524d\u91d1\u5340\u4e2d\u6b63\u56db\u8def109\u865f1\u6a13", "_id": 42, "\u5730\u9ede": "\u5f70\u5316\u5546\u696d\u9280\u884c\u6771\u9ad8\u96c4\u5206\u884c", "lng": "120.297516"}, {"lat": "22.628049", "\u5730\u5740": "801\u9ad8\u96c4\u5e02\u524d\u91d1\u5340\u4e2d\u6b63\u56db\u8def235\u865f", "_id": 43, "\u5730\u9ede": "\u5146\u8c50\u570b\u969b\u5546\u9280\u9ad8\u96c4\u5206\u884c", "lng": "120.292673"}, {"lat": "22.628014", "\u5730\u5740": "801\u9ad8\u96c4\u5e02\u524d\u91d1\u5340\u4e2d\u6b63\u56db\u8def235\u865f5\u6a13\u4e4b1", "_id": 44, "\u5730\u9ede": "\u89c0\u5149\u5c40\u65c5\u904a\u670d\u52d9\u4e2d\u5fc3\u9ad8\u96c4\u670d\u52d9\u8655", "lng": "120.292718"}, {"lat": "22.627472", "\u5730\u5740": "801\u9ad8\u96c4\u5e02\u524d\u91d1\u5340\u4e2d\u6b63\u56db\u8def253\u865f", "_id": 45, "\u5730\u9ede": "\u5146\u8c50\u570b\u969b\u5546\u9280\u6e2f\u90fd\u5206\u884c", "lng": "120.290927"}, {"lat": "22.627472", "\u5730\u5740": "801\u9ad8\u96c4\u5e02\u524d\u91d1\u5340\u4e2d\u6b63\u56db\u8def253\u865f4\u6a13", "_id": 46, "\u5730\u9ede": "\u5146\u8c50\u570b\u969b\u5546\u9280\u6e2f\u90fd\u5206\u884c4\u6a13", "lng": "120.290927"}, {"lat": "22.627283", "\u5730\u5740": "801\u9ad8\u96c4\u5e02\u524d\u91d1\u5340\u4e2d\u6b63\u56db\u8def259\u865f1\u6a13", "_id": 47, "\u5730\u9ede": "\u4e2d\u592e\u5065\u5eb7\u4fdd\u96aa\u7f72-\u9ad8\u5c4f\u696d\u52d9\u7d441\u6a13\u806f\u5408\u670d\u52d9\u4e2d\u5fc3", "lng": "120.290077"}, {"lat": "22.627856", "\u5730\u5740": "801\u9ad8\u96c4\u5e02\u524d\u91d1\u5340\u4e2d\u6b63\u56db\u8def260\u865f", "_id": 48, "\u5730\u9ede": "\u9ad8\u96c4\u5e02\u653f\u5e9c\u8b66\u5bdf\u5c40", "lng": "120.290712"}, {"lat": "22.627585", "\u5730\u5740": "801\u9ad8\u96c4\u5e02\u524d\u91d1\u5340\u4e2d\u6b63\u56db\u8def264\u865f", "_id": 49, "\u5730\u9ede": "\u81fa\u7063\u9280\u884c\u9ad8\u96c4\u5206\u884c", "lng": "120.289604"}, {"lat": "22.627658", "\u5730\u5740": "801\u9ad8\u96c4\u5e02\u524d\u91d1\u5340\u4e2d\u83ef\u4e09\u8def68\u865f1-4\u6a13\u90e8\u4efd\u6a13\u5c64-\u65b0\u76db\u8857\u5165\u53e3", "_id": 50, "\u5730\u9ede": "\u9ad8\u96c4\u5e02\u7acb\u4e2d\u91ab\u91ab\u9662", "lng": "120.29701"}, {"lat": "22.622646", "\u5730\u5740": "801\u9ad8\u96c4\u5e02\u524d\u91d1\u5340\u4e94\u798f\u4e09\u8def21\u865f8\u6a13", "_id": 51, "\u5730\u9ede": "\u52de\u52d5\u90e8\u52de\u52d5\u529b\u767c\u5c55\u7f72\u9ad8\u5c4f\u6f8e\u6771\u5206\u7f72\u9752\u5e74\u8077\u6daf\u767c\u5c55\u4e2d\u5fc3", "lng": "120.299644"}, {"lat": "22.622563", "\u5730\u5740": "801\u9ad8\u96c4\u5e02\u524d\u91d1\u5340\u4e94\u798f\u4e09\u8def21\u865f\u524d\u516c\u8eca\u57ce\u5e02\u5149\u5eca\u7ad9", "_id": 52, "\u5730\u9ede": "\u9ad8\u5e02\u5e9c\u8cc7\u8a0a\u4e2d\u5fc3-\u57ce\u5e02\u5149\u5eca(\u516c\u8eca\u7ad9\u6771)", "lng": "120.299647"}, {"lat": "22.6215737", "\u5730\u5740": "801\u9ad8\u96c4\u5e02\u524d\u91d1\u5340\u4e94\u798f\u4e09\u8def61\u865f", "_id": 53, "\u5730\u9ede": "\u7b2c\u4e00\u5546\u696d\u9280\u884c(\u82d3\u96c5\u5206\u884c)", "lng": "120.2970129"}, {"lat": "22.62132", "\u5730\u5740": "801\u9ad8\u96c4\u5e02\u524d\u91d1\u5340\u4e94\u798f\u4e09\u8def79\u865f", "_id": 54, "\u5730\u9ede": "\u81fa\u7063\u4e2d\u5c0f\u4f01\u696d\u9280\u884c\u9ad8\u96c4\u5206\u884c", "lng": "120.296141"}, {"lat": "22.621168", "\u5730\u5740": "801\u9ad8\u96c4\u5e02\u524d\u91d1\u5340\u4e94\u798f\u4e09\u8def87\u865f", "_id": 55, "\u5730\u9ede": "\u81fa\u7063\u571f\u5730\u9280\u884c\u4e2d\u5c71\u5206\u884c", "lng": "120.295815"}, {"lat": "22.63154", "\u5730\u5740": "801\u9ad8\u96c4\u5e02\u524d\u91d1\u5340\u516d\u5408\u4e8c\u8def147\u865f", "_id": 56, "\u5730\u9ede": "\u524d\u91d1\u90f5\u5c40", "lng": "120.296345"}, {"lat": "22.62975", "\u5730\u5740": "801\u9ad8\u96c4\u5e02\u524d\u91d1\u5340\u516d\u5408\u4e8c\u8def217\u865f", "_id": 57, "\u5730\u9ede": "\u570b\u9632\u90e8\u61b2\u5175\u6307\u63ee\u90e8\u9ad8\u96c4\u61b2\u5175\u968a\u6703\u5ba2\u5ba4", "lng": "120.29234"}, {"lat": "22.626945", "\u5730\u5740": "801\u9ad8\u96c4\u5e02\u524d\u91d1\u5340\u5e02\u4e2d\u4e00\u8def171\u865f", "_id": 58, "\u5730\u9ede": "\u9ad8\u96c4\u5730\u65b9\u6cd5\u9662\u90f5\u5c40", "lng": "120.290587"}, {"lat": "22.627242", "\u5730\u5740": "801\u9ad8\u96c4\u5e02\u524d\u91d1\u5340\u6c11\u751f\u4e8c\u8def39\u865f", "_id": 59, "\u5730\u9ede": "\u9ad8\u96c4\u5e02\u7acb\u5716\u66f8\u9928\u6587\u5b78\u9928", "lng": "120.298233"}, {"lat": "22.627342", "\u5730\u5740": "801\u9ad8\u96c4\u5e02\u524d\u91d1\u5340\u6210\u529f\u4e00\u8def420\u865f", "_id": 60, "\u5730\u9ede": "\u4e0a\u6d77\u5546\u9280\u524d\u91d1\u5206\u884c", "lng": "120.292716"}, {"lat": "22.6291", "\u5730\u5740": "801\u9ad8\u96c4\u5e02\u524d\u91d1\u5340\u6210\u529f\u4e00\u8def436\u865f", "_id": 61, "\u5730\u9ede": "\u884c\u653f\u9662\u5357\u90e8\u806f\u5408\u670d\u52d9\u4e2d\u5fc310\u6a13\u670d\u52d9\u6ac3\u53f0", "lng": "120.291962"}, {"lat": "22.6291", "\u5730\u5740": "801\u9ad8\u96c4\u5e02\u524d\u91d1\u5340\u6210\u529f\u4e00\u8def436\u865f", "_id": 62, "\u5730\u9ede": "\u884c\u653f\u9662\u5357\u90e8\u806f\u5408\u670d\u52d9\u4e2d\u5fc311\u6a13\u670d\u52d9\u6ac3\u53f0", "lng": "120.291962"}, {"lat": "22.6291", "\u5730\u5740": "801\u9ad8\u96c4\u5e02\u524d\u91d1\u5340\u6210\u529f\u4e00\u8def436\u865f", "_id": 63, "\u5730\u9ede": "\u884c\u653f\u9662\u5357\u90e8\u806f\u5408\u670d\u52d9\u4e2d\u5fc34\u6a13\u670d\u52d9\u6ac3\u53f0", "lng": "120.291962"}, {"lat": "22.629074", "\u5730\u5740": "801\u9ad8\u96c4\u5e02\u524d\u91d1\u5340\u6210\u529f\u4e00\u8def436\u865f1\u6a13", "_id": 64, "\u5730\u9ede": "\u5167\u653f\u90e8\u79fb\u6c11\u7f72\u9ad8\u96c4\u5e02\u7b2c\u4e00\u670d\u52d9\u7ad91F", "lng": "120.291897"}, {"lat": "22.6291", "\u5730\u5740": "801\u9ad8\u96c4\u5e02\u524d\u91d1\u5340\u6210\u529f\u4e00\u8def436\u865f2\u6a13", "_id": 65, "\u5730\u9ede": "\u5916\u4ea4\u90e8\u9818\u4e8b\u4e8b\u52d9\u5c40\u5357\u90e8\u8fa6\u4e8b\u8655(2\u6a13\u5927\u5ef3)", "lng": "120.291962"}, {"lat": "22.6291001", "\u5730\u5740": "801\u9ad8\u96c4\u5e02\u524d\u91d1\u5340\u6210\u529f\u4e00\u8def436\u865f5\u6a13", "_id": 66, "\u5730\u9ede": "\u7d93\u6fdf\u90e8\u5de5\u696d\u5c40\u5357\u90e8\u670d\u52d9\u8655", "lng": "120.2919622"}, {"lat": "22.629074", "\u5730\u5740": "801\u9ad8\u96c4\u5e02\u524d\u91d1\u5340\u6210\u529f\u4e00\u8def436\u865f7\u6a13", "_id": 67, "\u5730\u9ede": "\u5167\u653f\u90e8\u79fb\u6c11\u7f72\u9ad8\u96c4\u5e02\u7b2c\u4e00\u670d\u52d9\u7ad97F", "lng": "120.291897"}, {"lat": "22.629185", "\u5730\u5740": "801\u9ad8\u96c4\u5e02\u524d\u91d1\u5340\u6210\u529f\u4e00\u8def436\u865f8F", "_id": 68, "\u5730\u9ede": "\u667a\u6167\u8ca1\u7522\u5c40\u9ad8\u96c4\u670d\u52d9\u8655", "lng": "120.291922"}, {"lat": "22.6291", "\u5730\u5740": "801\u9ad8\u96c4\u5e02\u524d\u91d1\u5340\u6210\u529f\u4e00\u8def436\u865f9\u6a13", "_id": 69, "\u5730\u9ede": "\u7d93\u6fdf\u90e8\u5357\u5340\u806f\u5408\u670d\u52d9\u4e2d\u5fc39\u6a13\u6c11\u773e\u6d3d\u516c\u6ac3\u53f0", "lng": "120.291962"}, {"lat": "22.62632", "\u5730\u5740": "801\u9ad8\u96c4\u5e02\u524d\u91d1\u5340\u81ea\u5f37\u4e8c\u8def104-1\u865f", "_id": 70, "\u5730\u9ede": "\u9ad8\u96c4\u793e\u6771\u90f5\u5c40", "lng": "120.295173"}, {"lat": "22.627955", "\u5730\u5740": "801\u9ad8\u96c4\u5e02\u524d\u91d1\u5340\u81ea\u5f37\u4e8c\u8def169\u865f1\u6a13", "_id": 71, "\u5730\u9ede": "\u9ad8\u96c4\u5e02\u524d\u91d1\u5340\u6236\u653f\u4e8b\u52d9\u6240", "lng": "120.294306"}, {"lat": "22.627559", "\u5730\u5740": "801\u9ad8\u96c4\u5e02\u524d\u91d1\u5340\u81ea\u5f37\u4e8c\u8def169\u865f3\u6a13", "_id": 72, "\u5730\u9ede": "\u9ad8\u96c4\u5e02\u524d\u91d1\u5340\u516c\u6240", "lng": "120.294285"}, {"lat": "22.623735", "\u5730\u5740": "801\u9ad8\u96c4\u5e02\u524d\u91d1\u5340\u81ea\u5f37\u4e8c\u8def52\u865f", "_id": 73, "\u5730\u9ede": "\u570b\u8ecd\u9000\u9664\u5f79\u5b98\u5175\u8f14\u5c0e\u59d4\u54e1\u6703\u9ad8\u96c4\u5e02\u69ae\u6c11\u670d\u52d9\u8655\u4e00\u6a13\u5927\u5ef3", "lng": "120.296041"}, {"lat": "22.626025", "\u5730\u5740": "801\u9ad8\u96c4\u5e02\u524d\u91d1\u5340\u6cb3\u6771\u8def188\u865f", "_id": 74, "\u5730\u9ede": "\u81fa\u7063\u9ad8\u96c4\u5730\u65b9\u6cd5\u9662\u6aa2\u5bdf\u7f721\u6a13\u5075\u67e5\u5ead\u5340", "lng": "120.289689"}, {"lat": "22.622637", "\u5730\u5740": "802\u9ad8\u96c4\u5e02\u82d3\u96c5\u5340\u4e09\u591a\u4e00\u8def166\u865f", "_id": 75, "\u5730\u9ede": "\u9ad8\u96c4\u5e02\u82d3\u96c5\u5340\u6236\u653f\u4e8b\u52d9\u6240\u7b2c\u4e8c\u8fa6\u516c\u8655", "lng": "120.330417"}, {"lat": "22.622264", "\u5730\u5740": "802\u9ad8\u96c4\u5e02\u82d3\u96c5\u5340\u4e09\u591a\u4e00\u8def237\u865f", "_id": 76, "\u5730\u9ede": "\u9ad8\u96c4\u4e94\u584a\u539d\u90f5\u5c40", "lng": "120.330421"}, {"lat": "22.619087", "\u5730\u5740": "802\u9ad8\u96c4\u5e02\u82d3\u96c5\u5340\u4e09\u591a\u4e8c\u8def249\u865f", "_id": 77, "\u5730\u9ede": "\u9ad8\u96c4\u6797\u83ef\u90f5\u5c40", "lng": "120.320843"}, {"lat": "22.620349", "\u5730\u5740": "802\u9ad8\u96c4\u5e02\u82d3\u96c5\u5340\u4e09\u591a\u4e8c\u8def93\u865f", "_id": 78, "\u5730\u9ede": "\u5146\u8c50\u570b\u969b\u5546\u9280\u4e09\u591a\u5206\u884c", "lng": "120.324693"}, {"lat": "22.619597", "\u5730\u5740": "802\u9ad8\u96c4\u5e02\u82d3\u96c5\u5340\u4e2d\u5c71\u4e8c\u8def489\u865f", "_id": 79, "\u5730\u9ede": "\u83ef\u5357\u5546\u696d\u9280\u884c\u82d3\u96c5\u5206\u884c", "lng": "120.30216"}, {"lat": "22.628164", "\u5730\u5740": "802\u9ad8\u96c4\u5e02\u82d3\u96c5\u5340\u4e2d\u6b63\u4e00\u8def120\u865f", "_id": 80, "\u5730\u9ede": "\u83ef\u9280\u5546\u696d\u9280\u884c\u6771\u82d3\u5206\u884c", "lng": "120.33259"}, {"lat": "22.625657", "\u5730\u5740": "802\u9ad8\u96c4\u5e02\u82d3\u96c5\u5340\u4e2d\u6b63\u4e00\u8def2\u865f", "_id": 81, "\u5730\u9ede": "\u570b\u8ecd\u9ad8\u96c4\u7e3d\u91ab\u9662\u4e00\u822c\u8a3a\u9593\u7b49\u5019\u8655", "lng": "120.341942"}, {"lat": "22.625657", "\u5730\u5740": "802\u9ad8\u96c4\u5e02\u82d3\u96c5\u5340\u4e2d\u6b63\u4e00\u8def2\u865f", "_id": 82, "\u5730\u9ede": "\u570b\u8ecd\u9ad8\u96c4\u7e3d\u91ab\u9662\u6025\u8a3a\u5ba4", "lng": "120.341942"}, {"lat": "22.625657", "\u5730\u5740": "802\u9ad8\u96c4\u5e02\u82d3\u96c5\u5340\u4e2d\u6b63\u4e00\u8def2\u865f", "_id": 83, "\u5730\u9ede": "\u570b\u8ecd\u9ad8\u96c4\u7e3d\u91ab\u9662\u639b\u865f\u5ba4\u3001\u85e5\u5c40\u7b49\u5019\u8655", "lng": "120.341942"}, {"lat": "22.625657", "\u5730\u5740": "802\u9ad8\u96c4\u5e02\u82d3\u96c5\u5340\u4e2d\u6b63\u4e00\u8def2\u865f", "_id": 84, "\u5730\u9ede": "\u570b\u8ecd\u9ad8\u96c4\u7e3d\u91ab\u9662\u6aa2\u67e5\u5ba4\u7b49\u5019\u8655", "lng": "120.341942"}, {"lat": "22.625657", "\u5730\u5740": "802\u9ad8\u96c4\u5e02\u82d3\u96c5\u5340\u4e2d\u6b63\u4e00\u8def2\u865f", "_id": 85, "\u5730\u9ede": "\u570b\u8ecd\u9ad8\u96c4\u7e3d\u91ab\u9662\u7259\u79d1\u8a3a\u9593\u7b49\u5019\u8655", "lng": "120.341942"}, {"lat": "22.625657", "\u5730\u5740": "802\u9ad8\u96c4\u5e02\u82d3\u96c5\u5340\u4e2d\u6b63\u4e00\u8def2\u865f", "_id": 86, "\u5730\u9ede": "\u570b\u8ecd\u9ad8\u96c4\u7e3d\u91ab\u9662\u8033\u9f3b\u5589\u79d1\u8a3a\u9593\u7b49\u5f85\u8655", "lng": "120.341942"}, {"lat": "22.629842", "\u5730\u5740": "802\u9ad8\u96c4\u5e02\u82d3\u96c5\u5340\u4e2d\u6b63\u4e00\u8def304\u865f", "_id": 87, "\u5730\u9ede": "\u884c\u653f\u9662\u52de\u52d5\u90e8\u52de\u5de5\u4fdd\u96aa\u5c40\u9ad8\u96c4\u5e02\u8fa6\u4e8b\u8655\u6d3d\u516c\u6ac3\u53f0", "lng": "120.327238"}, {"lat": "22.629859", "\u5730\u5740": "802\u9ad8\u96c4\u5e02\u82d3\u96c5\u5340\u4e2d\u6b63\u4e00\u8def322\u3001324\u865f", "_id": 88, "\u5730\u9ede": "\u9ad8\u96c4\u6b63\u8a00\u90f5\u5c40", "lng": "120.326762"}, {"lat": "22.625499", "\u5730\u5740": "802\u9ad8\u96c4\u5e02\u82d3\u96c5\u5340\u4e2d\u6b63\u4e00\u8def99\u865f", "_id": 89, "\u5730\u9ede": "\u9ad8\u96c4\u5e02\u9ad4\u80b2\u8655\u672c\u90e81F\u670d\u52d9\u53f0", "lng": "120.33398"}, {"lat": "22.625499", "\u5730\u5740": "802\u9ad8\u96c4\u5e02\u82d3\u96c5\u5340\u4e2d\u6b63\u4e00\u8def99\u865f", "_id": 90, "\u5730\u9ede": "\u9ad8\u96c4\u5e02\u9ad4\u80b2\u8655\u672c\u90e83F\u6703\u8b70\u5ba4", "lng": "120.33398"}, {"lat": "22.6302723", "\u5730\u5740": "802\u9ad8\u96c4\u5e02\u82d3\u96c5\u5340\u4e2d\u6b63\u4e8c\u8def161\u865f", "_id": 91, "\u5730\u9ede": "\u7b2c\u4e00\u5546\u696d\u9280\u884c(\u4e94\u798f\u5206\u884c)", "lng": "120.314618"}, {"lat": "22.630438", "\u5730\u5740": "802\u9ad8\u96c4\u5e02\u82d3\u96c5\u5340\u4e2d\u6b63\u4e8c\u8def74\u865f3\u6a13", "_id": 92, "\u5730\u9ede": "\u52de\u52d5\u90e8\u52de\u52d5\u529b\u767c\u5c55\u7f72\u9ad8\u5c4f\u6f8e\u6771\u5206\u7f72\u5357\u5340\u9280\u9aee\u4eba\u624d\u8cc7\u6e90\u4e2d\u5fc3\u6d3d\u516c\u670d\u52d9\u6ac3\u53f0", "lng": "120.318793"}, {"lat": "22.630545", "\u5730\u5740": "802\u9ad8\u96c4\u5e02\u82d3\u96c5\u5340\u4e2d\u6b63\u4e8c\u8def74\u865f8\u6a13", "_id": 93, "\u5730\u9ede": "\u4e2d\u570b\u8f38\u51fa\u5165\u9280\u884c\u9ad8\u96c4\u5206\u884c", "lng": "120.318468"}, {"lat": "22.625808", "\u5730\u5740": "802\u9ad8\u96c4\u5e02\u82d3\u96c5\u5340\u4e94\u798f\u4e00\u8def67\u865f", "_id": 94, "\u5730\u9ede": "\u9ad8\u5e02\u5e9c\u8cc7\u8a0a\u4e2d\u5fc3-\u9ad8\u96c4\u5e02\u6587\u5316\u4e2d\u5fc3(\u4e94\u798f\u4e00\u8def\u9580\u53e3\u516c\u8a71)", "lng": "120.318142"}, {"lat": "22.625808", "\u5730\u5740": "802\u9ad8\u96c4\u5e02\u82d3\u96c5\u5340\u4e94\u798f\u4e00\u8def67\u865f", "_id": 95, "\u5730\u9ede": "\u9ad8\u5e02\u5e9c\u8cc7\u8a0a\u4e2d\u5fc3-\u9ad8\u96c4\u5e02\u6587\u5316\u4e2d\u5fc3(\u524d\u5ef3\u516c\u8a71)", "lng": "120.318142"}, {"lat": "22.625808", "\u5730\u5740": "802\u9ad8\u96c4\u5e02\u82d3\u96c5\u5340\u4e94\u798f\u4e00\u8def67\u865f", "_id": 96, "\u5730\u9ede": "\u9ad8\u5e02\u5e9c\u8cc7\u8a0a\u4e2d\u5fc3-\u9ad8\u96c4\u5e02\u6587\u5316\u4e2d\u5fc3(\u5716\u66f8\u9928\u516c\u8a71)", "lng": "120.318142"}, {"lat": "22.625808", "\u5730\u5740": "802\u9ad8\u96c4\u5e02\u82d3\u96c5\u5340\u4e94\u798f\u4e00\u8def67\u865f", "_id": 97, "\u5730\u9ede": "\u9ad8\u5e02\u5e9c\u8cc7\u8a0a\u4e2d\u5fc3-\u9ad8\u96c4\u5e02\u6587\u5316\u4e2d\u5fc3(\u6771\u82d1\u85dd\u6587\u670d\u52d9\u4e2d\u5fc3\u524d\u516c\u8a71)", "lng": "120.318142"}, {"lat": "22.625808", "\u5730\u5740": "802\u9ad8\u96c4\u5e02\u82d3\u96c5\u5340\u4e94\u798f\u4e00\u8def67\u865f", "_id": 98, "\u5730\u9ede": "\u9ad8\u5e02\u5e9c\u8cc7\u8a0a\u4e2d\u5fc3-\u9ad8\u96c4\u5e02\u6587\u5316\u4e2d\u5fc3(\u81f3\u5fb7\u5802\u516c\u8a71)", "lng": "120.318142"}, {"lat": "22.625808", "\u5730\u5740": "802\u9ad8\u96c4\u5e02\u82d3\u96c5\u5340\u4e94\u798f\u4e00\u8def67\u865f", "_id": 99, "\u5730\u9ede": "\u9ad8\u5e02\u5e9c\u8cc7\u8a0a\u4e2d\u5fc3-\u9ad8\u96c4\u5e02\u6587\u5316\u4e2d\u5fc3(\u81f3\u771f\u4e09\u9928)", "lng": "120.318142"}, {"lat": "22.625808", "\u5730\u5740": "802\u9ad8\u96c4\u5e02\u82d3\u96c5\u5340\u4e94\u798f\u4e00\u8def67\u865f", "_id": 100, "\u5730\u9ede": "\u9ad8\u5e02\u5e9c\u8cc7\u8a0a\u4e2d\u5fc3-\u9ad8\u96c4\u5e02\u6587\u5316\u4e2d\u5fc3(\u8b66\u885b\u5ba4\u516c\u8a71)", "lng": "120.318142"}], "_links": {"start": "/api/action/datastore_search?resource_id=f5408845-0f47-49b5-b366-119e74ef95b1", "next": "/api/action/datastore_search?offset=100&resource_id=f5408845-0f47-49b5-b366-119e74ef95b1"}, "total": 787}}